A Tidy Approach to NetCDF Data Exploration and Extraction • tidync
…
## with the saved filtering from above, choose data frame or tbl_cube output
## optionally with only selected variables
subs %>% hyper_tibble()
#> # A tibble: 493 × 37
#>     PRES PRES_QC PRES_AD…¹ PRES_…² PRES_…³  TEMP TEMP_QC TEMP_…⁴ TEMP_…⁵ TEMP_…⁶
#>    <dbl> <chr>       <dbl> <chr>     <dbl> <dbl> <chr>     <dbl> <chr>     <dbl>
#>  1  7.70 1            7.79 1          2.40  13.2 1          13.2 1       0.00200
#>  2 11.8  1           11.9  1          2.40  13.2 1          13.2 1       0.00200
#>  3 16.3  1           16.4  1          2.40  13.2 1          13.2 1       0.00200
#>  4 21.6  1           21.7  1          2.40  13.2 1          13.2 1       0.00200
#>  5 26.7  1           26.8  1          2.40  13.2 1          13.2 1       0.00200
#>  6 31.7  1           31.8  1          2.40  13.2 1          13.2 1       0.00200
#>  7 36.6  1           36.7  1          2.40  13.2 1          13.2 1       0.00200
#>  8 41.4  1           41.5  1          2.40  13.2 1          13.2 1       0.00200
#>  9 46.5  1           46.6  1          2.40  13.2 1          13.2 1       0.00200
#> 10 51.8  1           51.9  1          2.40  13.2 1          13.2 1       0.00200
#> # … with 483 more rows, 27 more variables: PSAL <dbl>, PSAL_QC <chr>,
#> #   PSAL_ADJUSTED <dbl>, PSAL_ADJUSTED_QC <chr>, PSAL_ADJUSTED_ERROR <dbl>,
#> #   DOXY <dbl>, DOXY_QC <chr>, DOXY_ADJUSTED <dbl>, DOXY_ADJUSTED_QC <chr>,
#> #   DOXY_ADJUSTED_ERROR <dbl>, CHLA <dbl>, CHLA_QC <chr>, CHLA_ADJUSTED <dbl>,
#> #   CHLA_ADJUSTED_QC <chr>, CHLA_ADJUSTED_ERROR <dbl>, BBP700 <dbl>,
#> #   BBP700_QC <chr>, BBP700_ADJUSTED <dbl>, BBP700_ADJUSTED_QC <chr>,
#> #   BBP700_ADJUSTED_ERROR <dbl>, NITRATE <dbl>, NITRATE_QC <chr>, …
…
