…
#> # A tibble: 3 x 7
#>   name  length start count    id unlim coord_dim
#>   <chr>  <dbl> <int> <int> <dbl> <lgl> <lgl>    
#> 1 ni       632     1    19     0 FALSE FALSE    
#> 2 nj       664    30    71     1 FALSE FALSE    
#> 3 time       1     1     1     2 FALSE TRUE
axis_transforms(hf)
#> $time
#> # A tibble: 1 x 6
#>      time index    id name  coord_dim selected
#>     <dbl> <int> <dbl> <chr> <lgl>     <lgl>   
#> 1 1032204     1     2 time  TRUE      TRUE    
#> 
#> $ni
#> # A tibble: 632 x 6
#>       ni index    id name  coord_dim selected
#>    <int> <int> <dbl> <chr> <lgl>     <lgl>   
#>  1     1     1     0 ni    FALSE     TRUE    
#>  2     2     2     0 ni    FALSE     TRUE    
#>  3     3     3     0 ni    FALSE     TRUE    
#>  4     4     4     0 ni    FALSE     TRUE    
#>  5     5     5     0 ni    FALSE     TRUE    
#>  6     6     6     0 ni    FALSE     TRUE    
#>  7     7     7     0 ni    FALSE     TRUE    
#>  8     8     8     0 ni    FALSE     TRUE    
#>  9     9     9     0 ni    FALSE     TRUE    
#> 10    10    10     0 ni    FALSE     TRUE    
#> # … with 622 more rows
#> 
#> $nj
#> # A tibble: 664 x 6
#>       nj index    id name  coord_dim selected
#>    <int> <int> <dbl> <chr> <lgl>     <lgl>   
#>  1     1     1     1 nj    FALSE     TRUE    
#>  2     2     2     1 nj    FALSE     TRUE    
#>  3     3     3     1 nj    FALSE     TRUE    
#>  4     4     4     1 nj    FALSE     TRUE    
#>  5     5     5     1 nj    FALSE     TRUE    
#>  6     6     6     1 nj    FALSE     TRUE    
#>  7     7     7     1 nj    FALSE     TRUE    
#>  8     8     8     1 nj    FALSE     TRUE    
#>  9     9     9     1 nj    FALSE     TRUE    
#> 10    10    10     1 nj    FALSE     TRUE    
#> # … with 654 more rows
…
