Tidy NetCDF examples • tidync
…
tidync(romsfile) %>% hyper_filter()

## [1] "filtered dimension summary: "
## # A tibble: 4 x 4
##         name        min        max length
##        <chr>      <dbl>      <dbl>  <int>
## 1     xi_rho          1       1443   1443
## 2    eta_rho          1        392    392
## 3        s_w         -1          0     32
## 4 ocean_time 1009756800 1012348800     31

(tab <- tidync(romsfile) %>% activate(temp) %>% 
  hyper_tibble(xi_rho = step > 1000, s_rho = s_rho > -0.5, ocean_time = step == 1))

## # A tibble: 2,604,840 x 5
##     temp xi_rho eta_rho      s_rho ocean_time
##    <dbl>  <dbl>   <dbl>      <dbl>      <dbl>
##  1    NA   1001       1 -0.4677419 1009756800
##  2    NA   1002       1 -0.4677419 1009756800
##  3    NA   1003       1 -0.4677419 1009756800
##  4    NA   1004       1 -0.4677419 1009756800
##  5    NA   1005       1 -0.4677419 1009756800
##  6    NA   1006       1 -0.4677419 1009756800
##  7    NA   1007       1 -0.4677419 1009756800
##  8    NA   1008       1 -0.4677419 1009756800
##  9    NA   1009       1 -0.4677419 1009756800
## 10    NA   1010       1 -0.4677419 1009756800
## # ... with 2,604,830 more rows
…
Now for a different orientation, this time with only one longitude slice. This example really needs to map on the actual geographic depth here, so it will need to be points or a mesh, or perform resampling on a grid.

(tab <- tidync(romsfile) %>% activate(temp) %>% 
  hyper_tibble(xi_rho = step == 1200,  ocean_time = step < 12))

## # A tibble: 133,672 x 5
##     temp xi_rho eta_rho     s_rho ocean_time
##    <dbl>  <dbl>   <dbl>     <dbl>      <dbl>
##  1    NA   1200       1 -0.983871 1009756800
##  2    NA   1200       2 -0.983871 1009756800
##  3    NA   1200       3 -0.983871 1009756800
##  4    NA   1200       4 -0.983871 1009756800
##  5    NA   1200       5 -0.983871 1009756800
##  6    NA   1200       6 -0.983871 1009756800
##  7    NA   1200       7 -0.983871 1009756800
##  8    NA   1200       8 -0.983871 1009756800
##  9    NA   1200       9 -0.983871 1009756800
## 10    NA   1200      10 -0.983871 1009756800
## # ... with 133,662 more rows
…
