…
```r
ncmeta::nc_atts(oisstfile)
```

```
## # A tibble: 50 x 4
##       id name          variable value    
##    <int> <chr>         <chr>    <list>   
##  1     0 standard_name lon      <chr [1]>
##  2     1 long_name     lon      <chr [1]>
##  3     2 units         lon      <chr [1]>
##  4     3 axis          lon      <chr [1]>
##  5     0 standard_name lat      <chr [1]>
##  6     1 long_name     lat      <chr [1]>
##  7     2 units         lat      <chr [1]>
##  8     3 axis          lat      <chr [1]>
##  9     0 long_name     zlev     <chr [1]>
## 10     1 units         zlev     <chr [1]>
## # … with 40 more rows
```
…
```
## # A tibble: 1 x 4
##      id name  length unlim
##   <int> <chr>  <dbl> <lgl>
## 1     0 lon      180 FALSE
```

```r
ncmeta::nc_atts(oisstfile)
```

```
## # A tibble: 50 x 4
##       id name          variable value    
##    <int> <chr>         <chr>    <list>   
##  1     0 standard_name lon      <chr [1]>
##  2     1 long_name     lon      <chr [1]>
##  3     2 units         lon      <chr [1]>
##  4     3 axis          lon      <chr [1]>
##  5     0 standard_name lat      <chr [1]>
##  6     1 long_name     lat      <chr [1]>
##  7     2 units         lat      <chr [1]>
##  8     3 axis          lat      <chr [1]>
##  9     0 long_name     zlev     <chr [1]>
## 10     1 units         zlev     <chr [1]>
## # … with 40 more rows
```
…
The print summary of the `oisst_data` object shows that it knows there are four variable and that they each have 2 dimensions (zlev and time were *dropped*), this is now stored as a list of native R arrays, but there is also the transforms attribute available with `hyper_transforms()`. 

The values on each transform table may be used directly. 


```r
(trans <- attr(oisst_data, "transforms"))
```

```
## $lon
## # A tibble: 180 x 6
##      lon index    id name  coord_dim selected
##    <dbl> <int> <int> <chr> <lgl>     <lgl>   
##  1     0     1     0 lon   TRUE      TRUE    
##  2     2     2     0 lon   TRUE      TRUE    
##  3     4     3     0 lon   TRUE      TRUE    
##  4     6     4     0 lon   TRUE      TRUE    
##  5     8     5     0 lon   TRUE      TRUE    
##  6    10     6     0 lon   TRUE      TRUE    
##  7    12     7     0 lon   TRUE      TRUE    
##  8    14     8     0 lon   TRUE      TRUE    
##  9    16     9     0 lon   TRUE      TRUE    
## 10    18    10     0 lon   TRUE      TRUE    
## # … with 170 more rows
## 
## $lat
## # A tibble: 90 x 6
##      lat index    id name  coord_dim selected
##    <dbl> <int> <int> <chr> <lgl>     <lgl>   
##  1   -89     1     1 lat   TRUE      TRUE    
##  2   -87     2     1 lat   TRUE      TRUE    
##  3   -85     3     1 lat   TRUE      TRUE    
##  4   -83     4     1 lat   TRUE      TRUE    
##  5   -81     5     1 lat   TRUE      TRUE    
##  6   -79     6     1 lat   TRUE      TRUE    
##  7   -77     7     1 lat   TRUE      TRUE    
##  8   -75     8     1 lat   TRUE      TRUE    
##  9   -73     9     1 lat   TRUE      TRUE    
## 10   -71    10     1 lat   TRUE      TRUE    
## # … with 80 more rows
## 
## $zlev
…
By default, all variables are available but we can limit with `select_var`. 



```r
tidync(oisstfile) %>% 
  hyper_filter(lon = between(lon, lonrange[1], lonrange[2]), 
                       lat = lat > latrange[1] & lat <= latrange[2]) %>% 
  hyper_tibble(select_var = c("err", "ice"))
```

```
## # A tibble: 2,377 x 6
##      err   ice   lon   lat  zlev  time
##    <dbl> <dbl> <dbl> <dbl> <dbl> <dbl>
##  1 0.230    NA   144   -45     0  1460
##  2 0.320    NA   146   -45     0  1460
##  3 0.280    NA   148   -45     0  1460
##  4 0.210    NA   150   -45     0  1460
##  5 0.200    NA   152   -45     0  1460
##  6 0.240    NA   154   -45     0  1460
##  7 0.230    NA   156   -45     0  1460
##  8 0.250    NA   158   -45     0  1460
##  9 0.260    NA   160   -45     0  1460
## 10 0.290    NA   162   -45     0  1460
## # … with 2,367 more rows
```
…
full_expand(tidync(huc))
```

```
## Joining, by = "time"
```

```
## Joining, by = "station"
```

```
## # A tibble: 50 x 5
##       et  time station   lat   lon
##    <int> <dbl>   <int> <dbl> <dbl>
##  1    10 10957       1  36.5 -80.4
##  2    19 10988       1  36.5 -80.4
##  3    21 11017       1  36.5 -80.4
##  4    36 11048       1  36.5 -80.4
##  5   105 11078       1  36.5 -80.4
##  6   110 11109       1  36.5 -80.4
##  7   128 11139       1  36.5 -80.4
##  8   121 11170       1  36.5 -80.4
##  9    70 11201       1  36.5 -80.4
## 10    25 11231       1  36.5 -80.4
## # … with 40 more rows
```

```r
hyper_tibble(tidync(huc))
```

```
## # A tibble: 50 x 3
##       et  time station
##    <int> <dbl>   <int>
##  1    10 10957       1
##  2    19 10988       1
##  3    21 11017       1
##  4    36 11048       1
##  5   105 11078       1
##  6   110 11109       1
##  7   128 11139       1
##  8   121 11170       1
##  9    70 11201       1
## 10    25 11231       1
## # … with 40 more rows
```
…
