TRAC data
…
Also see how we have four transformation axes, these are 1-D axes for lon, lat, Z, and Time, but they have specific names here X, Y, Zmd000150, T.

names(data_connection$transforms)

## [1] "X"         "Y"         "Zmd000150" "T"

## we use these to hone in on what we want
## which is an index for a given longitude
data_connection$transforms$X %>% dplyr::filter(X > 70)

## # A tibble: 1,180 x 6
##         X index    id  name coord_dim selected
##     <dbl> <int> <int> <chr>     <lgl>    <lgl>
##  1 70.025   261     2     X      TRUE     TRUE
##  2 70.075   262     2     X      TRUE     TRUE
##  3 70.125   263     2     X      TRUE     TRUE
##  4 70.175   264     2     X      TRUE     TRUE
##  5 70.225   265     2     X      TRUE     TRUE
##  6 70.275   266     2     X      TRUE     TRUE
##  7 70.325   267     2     X      TRUE     TRUE
##  8 70.375   268     2     X      TRUE     TRUE
##  9 70.425   269     2     X      TRUE     TRUE
## 10 70.475   270     2     X      TRUE     TRUE
## # ... with 1,170 more rows
…
