A Tidy Approach to NetCDF Data Exploration and Extraction • tidync
…
## with the saved filtering from above, choose data frame or tbl_cube output
## optionally with only selected variables
subs %>% hyper_tibble()
#> # A tibble: 493 x 37
#>     PRES PRES_QC PRES_ADJUSTED PRES_ADJUSTED_QC PRES_ADJUSTED_E…  TEMP TEMP_QC
#>    <dbl> <chr>           <dbl> <chr>                       <dbl> <dbl> <chr>  
#>  1  7.70 1                7.79 1                            2.40  13.2 1      
#>  2 11.8  1               11.9  1                            2.40  13.2 1      
#>  3 16.3  1               16.4  1                            2.40  13.2 1      
#>  4 21.6  1               21.7  1                            2.40  13.2 1      
#>  5 26.7  1               26.8  1                            2.40  13.2 1      
#>  6 31.7  1               31.8  1                            2.40  13.2 1      
#>  7 36.6  1               36.7  1                            2.40  13.2 1      
#>  8 41.4  1               41.5  1                            2.40  13.2 1      
#>  9 46.5  1               46.6  1                            2.40  13.2 1      
#> 10 51.8  1               51.9  1                            2.40  13.2 1      
#> # … with 483 more rows, and 30 more variables: TEMP_ADJUSTED <dbl>,
#> #   TEMP_ADJUSTED_QC <chr>, TEMP_ADJUSTED_ERROR <dbl>, PSAL <dbl>,
#> #   PSAL_QC <chr>, PSAL_ADJUSTED <dbl>, PSAL_ADJUSTED_QC <chr>,
#> #   PSAL_ADJUSTED_ERROR <dbl>, DOXY <dbl>, DOXY_QC <chr>, DOXY_ADJUSTED <dbl>,
#> #   DOXY_ADJUSTED_QC <chr>, DOXY_ADJUSTED_ERROR <dbl>, CHLA <dbl>,
#> #   CHLA_QC <chr>, CHLA_ADJUSTED <dbl>, CHLA_ADJUSTED_QC <chr>,
#> #   CHLA_ADJUSTED_ERROR <dbl>, BBP700 <dbl>, BBP700_QC <chr>,
#> #   BBP700_ADJUSTED <dbl>, BBP700_ADJUSTED_QC <chr>,
#> #   BBP700_ADJUSTED_ERROR <dbl>, NITRATE <dbl>, NITRATE_QC <chr>,
…
in hyper_filter we must load them into one named expression.

tidync(filename) %>% hyper_filter(longitude = longitude > 100 & longitude < 150)

Extractive

Use what we learned interactively to extract the data, either in data frame or raw-array (hyper slice) form.

## we'll see a column for the variable activated, and whatever other 
## variables the grid has
tidync(filename) %>% activate("JULD") %>%
  hyper_filter(N_PROF = N_PROF == 1) %>%
  hyper_tibble()
#> # A tibble: 98 x 5
#>    SCIENTIFIC_CALIB_DATE DATE_TIME N_PARAM N_CALIB N_PROF
#>    <chr>                     <int>   <int>   <int>  <int>
#>  1 2                             1       1       1      1
#>  2 0                             2       1       1      1
#>  3 1                             3       1       1      1
#>  4 7                             4       1       1      1
#>  5 0                             5       1       1      1
#>  6 4                             6       1       1      1
#>  7 1                             7       1       1      1
#>  8 0                             8       1       1      1
#>  9 1                             9       1       1      1
#> 10 4                            10       1       1      1
#> # … with 88 more rows
…
