tidync • tidync
…
## with the saved filtering from above, choose data frame or tbl_cube output
## optionally with only selected variables
subs %>% hyper_tibble()
#> # A tibble: 493 x 37
#>     PRES PRES_QC PRES_ADJUSTED PRES_ADJUSTED_QC PRES_ADJUSTED_E…  TEMP
#>    <dbl> <chr>           <dbl> <chr>                       <dbl> <dbl>
#>  1  7.70 1                7.79 1                            2.40  13.2
#>  2 11.8  1               11.9  1                            2.40  13.2
#>  3 16.3  1               16.4  1                            2.40  13.2
#>  4 21.6  1               21.7  1                            2.40  13.2
#>  5 26.7  1               26.8  1                            2.40  13.2
#>  6 31.7  1               31.8  1                            2.40  13.2
#>  7 36.6  1               36.7  1                            2.40  13.2
#>  8 41.4  1               41.5  1                            2.40  13.2
#>  9 46.5  1               46.6  1                            2.40  13.2
#> 10 51.8  1               51.9  1                            2.40  13.2
#> # … with 483 more rows, and 31 more variables: TEMP_QC <chr>,
#> #   TEMP_ADJUSTED <dbl>, TEMP_ADJUSTED_QC <chr>,
#> #   TEMP_ADJUSTED_ERROR <dbl>, PSAL <dbl>, PSAL_QC <chr>,
#> #   PSAL_ADJUSTED <dbl>, PSAL_ADJUSTED_QC <chr>,
#> #   PSAL_ADJUSTED_ERROR <dbl>, DOXY <dbl>, DOXY_QC <chr>,
#> #   DOXY_ADJUSTED <dbl>, DOXY_ADJUSTED_QC <chr>,
#> #   DOXY_ADJUSTED_ERROR <dbl>, CHLA <dbl>, CHLA_QC <chr>,
#> #   CHLA_ADJUSTED <dbl>, CHLA_ADJUSTED_QC <chr>,
#> #   CHLA_ADJUSTED_ERROR <dbl>, BBP700 <dbl>, BBP700_QC <chr>,
…
