Tidy tools for NetCDF data. — tidync-package • tidync
…
#> [397] 397 398 399 400 401 402 403 404 405 406 407 408 409 410 411 412 413 414
#> [415] 415 416 417 418 419 420 421 422 423 424 425 426 427 428 429 430 431 432
#> [433] 433 434 435 436 437 438 439 440 441 442 443 444 445 446 447 448 449 450
#> [451] 451 452 453 454 455 456 457 458 459 460 461 462 463 464 465 466 467 468
#> [469] 469 470 471 472 473 474 475 476 477 478 479 480 481 482 483 484 485 486
#> [487] 487 488 489 490 491 492 493
#> 
#> $dims$N_PROF
#> [1] 1 2
#> 
#> 
#> attr(,"class")
#> [1] "tbl_cube"
argo %>% hyper_tibble(select_var = c("TEMP_QC"))
#> # A tibble: 986 x 3
#>    TEMP_QC N_LEVELS N_PROF
#>    <chr>      <int>  <int>
#>  1 1              1      1
#>  2 1              2      1
#>  3 1              3      1
#>  4 1              4      1
#>  5 1              5      1
#>  6 1              6      1
#>  7 1              7      1
#>  8 1              8      1
#>  9 1              9      1
#> 10 1             10      1
#> # … with 976 more rows
argo %>% hyper_transforms()
#> $N_LEVELS
#> # A tibble: 493 x 6
#>    N_LEVELS index    id name     coord_dim selected
#>       <int> <int> <int> <chr>    <lgl>     <lgl>   
#>  1        1     1    10 N_LEVELS FALSE     TRUE    
#>  2        2     2    10 N_LEVELS FALSE     TRUE    
#>  3        3     3    10 N_LEVELS FALSE     TRUE    
#>  4        4     4    10 N_LEVELS FALSE     TRUE    
#>  5        5     5    10 N_LEVELS FALSE     TRUE    
#>  6        6     6    10 N_LEVELS FALSE     TRUE    
#>  7        7     7    10 N_LEVELS FALSE     TRUE    
#>  8        8     8    10 N_LEVELS FALSE     TRUE    
#>  9        9     9    10 N_LEVELS FALSE     TRUE    
#> 10       10    10    10 N_LEVELS FALSE     TRUE    
#> # … with 483 more rows
#> 
#> $N_PROF
#> # A tibble: 2 x 6
#>   N_PROF index    id name   coord_dim selected
#>    <int> <int> <int> <chr>  <lgl>     <lgl>   
#> 1      1     1     8 N_PROF FALSE     TRUE    
#> 2      2     2     8 N_PROF FALSE     TRUE    
#> 
argo %>% hyper_vars()
#> # A tibble: 35 x 6
#>       id name                type     ndims natts dim_coord
#>    <int> <chr>               <chr>    <int> <int> <lgl>    
#>  1    37 PRES                NC_FLOAT     2    10 FALSE    
#>  2    38 PRES_QC             NC_CHAR      2     3 FALSE    
#>  3    39 PRES_ADJUSTED       NC_FLOAT     2     9 FALSE    
#>  4    40 PRES_ADJUSTED_QC    NC_CHAR      2     3 FALSE    
#>  5    41 PRES_ADJUSTED_ERROR NC_FLOAT     2     6 FALSE    
#>  6    42 TEMP                NC_FLOAT     2     9 FALSE    
#>  7    43 TEMP_QC             NC_CHAR      2     3 FALSE    
#>  8    44 TEMP_ADJUSTED       NC_FLOAT     2     9 FALSE    
#>  9    45 TEMP_ADJUSTED_QC    NC_CHAR      2     3 FALSE    
#> 10    46 TEMP_ADJUSTED_ERROR NC_FLOAT     2     6 FALSE    
#> # … with 25 more rows
…
