Tidy NetCDF — tidync • tidync
…
## very simple Unidata example file, with one dimension

# NOT RUN {
uf <- system.file("extdata/unidata", "test_hgroups.nc", package = "tidync")
recNum <- tidync(uf) %>% hyper_tibble()
print(recNum)
# }## a raw grid of Southern Ocean sea ice concentration from IFREMER
## it is 12.5km resolution passive microwave concentration values
## on a polar stereographic grid, on 2 October 2017, displaying the 
## "hole in the ice" made famous here:
## https://tinyurl.com/ycbchcgn
ifr <- system.file("extdata/ifremer", "20171002.nc", package = "tidync")
ifrnc <- tidync(ifr)
ifrnc %>% hyper_tibble(select_var = "concentration")
#> # A tibble: 207,195 x 4
#>    concentration    ni    nj    time
#>            <int> <int> <int>   <dbl>
#>  1             0   291     5 1032204
#>  2             0   292     5 1032204
#>  3             0   293     5 1032204
#>  4             0   294     5 1032204
#>  5             0   295     5 1032204
#>  6             0   296     5 1032204
#>  7             0   297     5 1032204
#>  8             0   298     5 1032204
#>  9             0   299     5 1032204
#> 10             0   300     5 1032204
#> # … with 207,185 more rows
…
