NetCDF with tidync • tidync
…
## as a data frame
hf %>% 
  hyper_tibble() %>% 
  dplyr::filter(!is.na(concentration)) %>% dplyr::distinct(concentration, quality_flag)
#> # A tibble: 105 × 2
#>    concentration quality_flag
#>            <int>        <int>
#>  1             0            0
#>  2             0           12
#>  3            42            0
#>  4            20            0
#>  5            21            0
#>  6            55            0
#>  7            17            0
#>  8            64            0
#>  9            25            0
#> 10            23            0
#> # … with 95 more rows
…
hf %>% activate("D2") %>%
  active()
#> [1] "D2"

Transforms

Under the hood tidync manages the relationship between dimensions and coordinates via transforms tables. This is a 1-dimensional mapping between dimension index and its coordinate value (if there’s no explicit value it is assumed to be equal to the 1-based index). These tables are available via the hyper_transforms() function.

Each table has columns <dimension-name>, index, id, name, coord_dim (whether the dimension has explicit coordinates, in the <dimension-name> column), and selected. The selected column records which of the dimension elements is currently requested by a hyper_filter query, and by default is set to TRUE. Expressions in the filter function work by updating this column.

hyper_transforms(hf)
#> $ni
#> # A tibble: 632 × 6
#>       ni index    id name  coord_dim selected
#>    <int> <int> <int> <chr> <lgl>     <lgl>   
#>  1     1     1     0 ni    FALSE     FALSE   
#>  2     2     2     0 ni    FALSE     FALSE   
#>  3     3     3     0 ni    FALSE     FALSE   
#>  4     4     4     0 ni    FALSE     FALSE   
#>  5     5     5     0 ni    FALSE     FALSE   
#>  6     6     6     0 ni    FALSE     FALSE   
#>  7     7     7     0 ni    FALSE     FALSE   
#>  8     8     8     0 ni    FALSE     FALSE   
#>  9     9     9     0 ni    FALSE     FALSE   
#> 10    10    10     0 ni    FALSE     FALSE   
#> # … with 622 more rows
#> 
#> $nj
#> # A tibble: 664 × 6
#>       nj index    id name  coord_dim selected
#>    <int> <int> <int> <chr> <lgl>     <lgl>   
#>  1     1     1     1 nj    FALSE     FALSE   
#>  2     2     2     1 nj    FALSE     FALSE   
#>  3     3     3     1 nj    FALSE     FALSE   
#>  4     4     4     1 nj    FALSE     FALSE   
#>  5     5     5     1 nj    FALSE     FALSE   
#>  6     6     6     1 nj    FALSE     FALSE   
#>  7     7     7     1 nj    FALSE     FALSE   
#>  8     8     8     1 nj    FALSE     FALSE   
#>  9     9     9     1 nj    FALSE     FALSE   
#> 10    10    10     1 nj    FALSE     FALSE   
#> # … with 654 more rows
…
